{
  "project_info": {
    "project_number": "545931494421",
    "firebase_url": "https://santana-cb5c4.firebaseio.com",
    "project_id": "santana-cb5c4",
    "storage_bucket": "santana-cb5c4.appspot.com"
  },
  "client": [
    {
      "client_info": {
        "mobilesdk_app_id": "1:545931494421:android:513c2d5a0e93c73fc5fa1c",
        "android_client_info": {
          "package_name": "com.samy.rock_paper_cisors_lezard_spock"
        }
      },
      "oauth_client": [
        {
          "client_id": "545931494421-2blitl246r6onm5urjj7mtp1hv2ukbco.apps.googleusercontent.com",
          "client_type": 1,
          "android_info": {
            "package_name": "com.samy.rock_paper_cisors_lezard_spock",
            "certificate_hash": "673747c6c58724c7f23cfb5880be371769bb3f26"
          }
        },
        {
          "client_id": "545931494421-64hbg0rukdp7hp5shbm7u96pbj85vsil.apps.googleusercontent.com",
          "client_type": 3
        }
      ],
      "api_key": [
        {
          "current_key": "AIzaSyC61TdOXa24W-NykskmRpcB-SPeqUAFKfQ"
        }
      ],
      "services": {
        "appinvite_service": {
          "other_platform_oauth_client": [
            {
              "client_id": "545931494421-64hbg0rukdp7hp5shbm7u96pbj85vsil.apps.googleusercontent.com",
              "client_type": 3
            }
          ]
        }
      }
    }
  ],
  "configuration_version": "1"
}